{
  "extends": ["tslint:latest", "tslint-config-prettier", "tslint-immutable"],
  "rules": {
    "no-submodule-imports": false,
    "ordered-imports": false,
    "object-literal-sort-keys": false,
    "interface-name": [true, "never-prefix"],
    "no-implicit-dependencies": [true, "dev"],

    "no-var-keyword": true,
    "no-parameter-reassignment": true,
    "typedef": [true, "call-signature"],

    "readonly-keyword": true,
    "readonly-array": true,
    "no-let": true,
    "no-object-mutation": true,
    "no-delete": true,
    "no-method-signature": true,
    "no-console": false,

    "no-this": true,
    "no-class": true,
    "no-mixed-interface": true,
    "no-expression-statement": [
      true,
      { "ignore-prefix": [
        "console",
        "process",
        "client",
        "channel",
        "app",
        "res",
        "observer",
        "log",
        "info",
        "warn",
        "error",
        "next",
        "send",
        "subscribe",
        "http",
        "virtualConsole"
      ]}
    ],
    "no-if-statement": true
  }
}
